{
  "pokemon": {
    "count": 1126,
    "next": "https://pokeapi.co/api/v2/pokemon?offset=24&limit=24",
    "previous": null,
    "results": [
      { "name": "bulbasaur", "url": "https://pokeapi.co/api/v2/pokemon/1/" },
      { "name": "ivysaur", "url": "https://pokeapi.co/api/v2/pokemon/2/" },
      { "name": "venusaur", "url": "https://pokeapi.co/api/v2/pokemon/3/" },
      { "name": "charmander", "url": "https://pokeapi.co/api/v2/pokemon/4/" },
      { "name": "charmeleon", "url": "https://pokeapi.co/api/v2/pokemon/5/" },
      { "name": "charizard", "url": "https://pokeapi.co/api/v2/pokemon/6/" },
      { "name": "squirtle", "url": "https://pokeapi.co/api/v2/pokemon/7/" },
      { "name": "wartortle", "url": "https://pokeapi.co/api/v2/pokemon/8/" },
      { "name": "blastoise", "url": "https://pokeapi.co/api/v2/pokemon/9/" },
      { "name": "caterpie", "url": "https://pokeapi.co/api/v2/pokemon/10/" },
      { "name": "metapod", "url": "https://pokeapi.co/api/v2/pokemon/11/" },
      { "name": "butterfree", "url": "https://pokeapi.co/api/v2/pokemon/12/" },
      { "name": "weedle", "url": "https://pokeapi.co/api/v2/pokemon/13/" },
      { "name": "kakuna", "url": "https://pokeapi.co/api/v2/pokemon/14/" },
      { "name": "beedrill", "url": "https://pokeapi.co/api/v2/pokemon/15/" },
      { "name": "pidgey", "url": "https://pokeapi.co/api/v2/pokemon/16/" },
      { "name": "pidgeotto", "url": "https://pokeapi.co/api/v2/pokemon/17/" },
      { "name": "pidgeot", "url": "https://pokeapi.co/api/v2/pokemon/18/" },
      { "name": "rattata", "url": "https://pokeapi.co/api/v2/pokemon/19/" },
      { "name": "raticate", "url": "https://pokeapi.co/api/v2/pokemon/20/" },
      { "name": "spearow", "url": "https://pokeapi.co/api/v2/pokemon/21/" },
      { "name": "fearow", "url": "https://pokeapi.co/api/v2/pokemon/22/" },
      { "name": "ekans", "url": "https://pokeapi.co/api/v2/pokemon/23/" },
      { "name": "arbok", "url": "https://pokeapi.co/api/v2/pokemon/24/" }
    ]
  },
  "ability": {
    "count": 327,
    "next": "https://pokeapi.co/api/v2/ability?offset=70&limit=70",
    "previous": null,
    "results": [
      { "name": "stench", "url": "https://pokeapi.co/api/v2/ability/1/" },
      { "name": "drizzle", "url": "https://pokeapi.co/api/v2/ability/2/" },
      { "name": "speed-boost", "url": "https://pokeapi.co/api/v2/ability/3/" },
      { "name": "battle-armor", "url": "https://pokeapi.co/api/v2/ability/4/" },
      { "name": "sturdy", "url": "https://pokeapi.co/api/v2/ability/5/" },
      { "name": "damp", "url": "https://pokeapi.co/api/v2/ability/6/" },
      { "name": "limber", "url": "https://pokeapi.co/api/v2/ability/7/" },
      { "name": "sand-veil", "url": "https://pokeapi.co/api/v2/ability/8/" },
      { "name": "static", "url": "https://pokeapi.co/api/v2/ability/9/" },
      { "name": "volt-absorb", "url": "https://pokeapi.co/api/v2/ability/10/" },
      {
        "name": "water-absorb",
        "url": "https://pokeapi.co/api/v2/ability/11/"
      },
      { "name": "oblivious", "url": "https://pokeapi.co/api/v2/ability/12/" },
      { "name": "cloud-nine", "url": "https://pokeapi.co/api/v2/ability/13/" },
      {
        "name": "compound-eyes",
        "url": "https://pokeapi.co/api/v2/ability/14/"
      },
      { "name": "insomnia", "url": "https://pokeapi.co/api/v2/ability/15/" },
      {
        "name": "color-change",
        "url": "https://pokeapi.co/api/v2/ability/16/"
      },
      { "name": "immunity", "url": "https://pokeapi.co/api/v2/ability/17/" },
      { "name": "flash-fire", "url": "https://pokeapi.co/api/v2/ability/18/" },
      { "name": "shield-dust", "url": "https://pokeapi.co/api/v2/ability/19/" },
      { "name": "own-tempo", "url": "https://pokeapi.co/api/v2/ability/20/" },
      {
        "name": "suction-cups",
        "url": "https://pokeapi.co/api/v2/ability/21/"
      },
      { "name": "intimidate", "url": "https://pokeapi.co/api/v2/ability/22/" },
      { "name": "shadow-tag", "url": "https://pokeapi.co/api/v2/ability/23/" },
      { "name": "rough-skin", "url": "https://pokeapi.co/api/v2/ability/24/" },
      {
        "name": "wonder-guard",
        "url": "https://pokeapi.co/api/v2/ability/25/"
      },
      { "name": "levitate", "url": "https://pokeapi.co/api/v2/ability/26/" },
      {
        "name": "effect-spore",
        "url": "https://pokeapi.co/api/v2/ability/27/"
      },
      { "name": "synchronize", "url": "https://pokeapi.co/api/v2/ability/28/" },
      { "name": "clear-body", "url": "https://pokeapi.co/api/v2/ability/29/" },
      {
        "name": "natural-cure",
        "url": "https://pokeapi.co/api/v2/ability/30/"
      },
      {
        "name": "lightning-rod",
        "url": "https://pokeapi.co/api/v2/ability/31/"
      },
      {
        "name": "serene-grace",
        "url": "https://pokeapi.co/api/v2/ability/32/"
      },
      { "name": "swift-swim", "url": "https://pokeapi.co/api/v2/ability/33/" },
      { "name": "chlorophyll", "url": "https://pokeapi.co/api/v2/ability/34/" },
      { "name": "illuminate", "url": "https://pokeapi.co/api/v2/ability/35/" },
      { "name": "trace", "url": "https://pokeapi.co/api/v2/ability/36/" },
      { "name": "huge-power", "url": "https://pokeapi.co/api/v2/ability/37/" },
      {
        "name": "poison-point",
        "url": "https://pokeapi.co/api/v2/ability/38/"
      },
      { "name": "inner-focus", "url": "https://pokeapi.co/api/v2/ability/39/" },
      { "name": "magma-armor", "url": "https://pokeapi.co/api/v2/ability/40/" },
      { "name": "water-veil", "url": "https://pokeapi.co/api/v2/ability/41/" },
      { "name": "magnet-pull", "url": "https://pokeapi.co/api/v2/ability/42/" },
      { "name": "soundproof", "url": "https://pokeapi.co/api/v2/ability/43/" },
      { "name": "rain-dish", "url": "https://pokeapi.co/api/v2/ability/44/" },
      { "name": "sand-stream", "url": "https://pokeapi.co/api/v2/ability/45/" },
      { "name": "pressure", "url": "https://pokeapi.co/api/v2/ability/46/" },
      { "name": "thick-fat", "url": "https://pokeapi.co/api/v2/ability/47/" },
      { "name": "early-bird", "url": "https://pokeapi.co/api/v2/ability/48/" },
      { "name": "flame-body", "url": "https://pokeapi.co/api/v2/ability/49/" },
      { "name": "run-away", "url": "https://pokeapi.co/api/v2/ability/50/" },
      { "name": "keen-eye", "url": "https://pokeapi.co/api/v2/ability/51/" },
      {
        "name": "hyper-cutter",
        "url": "https://pokeapi.co/api/v2/ability/52/"
      },
      { "name": "pickup", "url": "https://pokeapi.co/api/v2/ability/53/" },
      { "name": "truant", "url": "https://pokeapi.co/api/v2/ability/54/" },
      { "name": "hustle", "url": "https://pokeapi.co/api/v2/ability/55/" },
      { "name": "cute-charm", "url": "https://pokeapi.co/api/v2/ability/56/" },
      { "name": "plus", "url": "https://pokeapi.co/api/v2/ability/57/" },
      { "name": "minus", "url": "https://pokeapi.co/api/v2/ability/58/" },
      { "name": "forecast", "url": "https://pokeapi.co/api/v2/ability/59/" },
      { "name": "sticky-hold", "url": "https://pokeapi.co/api/v2/ability/60/" },
      { "name": "shed-skin", "url": "https://pokeapi.co/api/v2/ability/61/" },
      { "name": "guts", "url": "https://pokeapi.co/api/v2/ability/62/" },
      {
        "name": "marvel-scale",
        "url": "https://pokeapi.co/api/v2/ability/63/"
      },
      { "name": "liquid-ooze", "url": "https://pokeapi.co/api/v2/ability/64/" },
      { "name": "overgrow", "url": "https://pokeapi.co/api/v2/ability/65/" },
      { "name": "blaze", "url": "https://pokeapi.co/api/v2/ability/66/" },
      { "name": "torrent", "url": "https://pokeapi.co/api/v2/ability/67/" },
      { "name": "swarm", "url": "https://pokeapi.co/api/v2/ability/68/" },
      { "name": "rock-head", "url": "https://pokeapi.co/api/v2/ability/69/" },
      { "name": "drought", "url": "https://pokeapi.co/api/v2/ability/70/" }
    ]
  },
  "move": {
    "count": 844,
    "next": "https://pokeapi.co/api/v2/move?offset=70&limit=70",
    "previous": null,
    "results": [
      { "name": "pound", "url": "https://pokeapi.co/api/v2/move/1/" },
      { "name": "karate-chop", "url": "https://pokeapi.co/api/v2/move/2/" },
      { "name": "double-slap", "url": "https://pokeapi.co/api/v2/move/3/" },
      { "name": "comet-punch", "url": "https://pokeapi.co/api/v2/move/4/" },
      { "name": "mega-punch", "url": "https://pokeapi.co/api/v2/move/5/" },
      { "name": "pay-day", "url": "https://pokeapi.co/api/v2/move/6/" },
      { "name": "fire-punch", "url": "https://pokeapi.co/api/v2/move/7/" },
      { "name": "ice-punch", "url": "https://pokeapi.co/api/v2/move/8/" },
      { "name": "thunder-punch", "url": "https://pokeapi.co/api/v2/move/9/" },
      { "name": "scratch", "url": "https://pokeapi.co/api/v2/move/10/" },
      { "name": "vice-grip", "url": "https://pokeapi.co/api/v2/move/11/" },
      { "name": "guillotine", "url": "https://pokeapi.co/api/v2/move/12/" },
      { "name": "razor-wind", "url": "https://pokeapi.co/api/v2/move/13/" },
      { "name": "swords-dance", "url": "https://pokeapi.co/api/v2/move/14/" },
      { "name": "cut", "url": "https://pokeapi.co/api/v2/move/15/" },
      { "name": "gust", "url": "https://pokeapi.co/api/v2/move/16/" },
      { "name": "wing-attack", "url": "https://pokeapi.co/api/v2/move/17/" },
      { "name": "whirlwind", "url": "https://pokeapi.co/api/v2/move/18/" },
      { "name": "fly", "url": "https://pokeapi.co/api/v2/move/19/" },
      { "name": "bind", "url": "https://pokeapi.co/api/v2/move/20/" },
      { "name": "slam", "url": "https://pokeapi.co/api/v2/move/21/" },
      { "name": "vine-whip", "url": "https://pokeapi.co/api/v2/move/22/" },
      { "name": "stomp", "url": "https://pokeapi.co/api/v2/move/23/" },
      { "name": "double-kick", "url": "https://pokeapi.co/api/v2/move/24/" },
      { "name": "mega-kick", "url": "https://pokeapi.co/api/v2/move/25/" },
      { "name": "jump-kick", "url": "https://pokeapi.co/api/v2/move/26/" },
      { "name": "rolling-kick", "url": "https://pokeapi.co/api/v2/move/27/" },
      { "name": "sand-attack", "url": "https://pokeapi.co/api/v2/move/28/" },
      { "name": "headbutt", "url": "https://pokeapi.co/api/v2/move/29/" },
      { "name": "horn-attack", "url": "https://pokeapi.co/api/v2/move/30/" },
      { "name": "fury-attack", "url": "https://pokeapi.co/api/v2/move/31/" },
      { "name": "horn-drill", "url": "https://pokeapi.co/api/v2/move/32/" },
      { "name": "tackle", "url": "https://pokeapi.co/api/v2/move/33/" },
      { "name": "body-slam", "url": "https://pokeapi.co/api/v2/move/34/" },
      { "name": "wrap", "url": "https://pokeapi.co/api/v2/move/35/" },
      { "name": "take-down", "url": "https://pokeapi.co/api/v2/move/36/" },
      { "name": "thrash", "url": "https://pokeapi.co/api/v2/move/37/" },
      { "name": "double-edge", "url": "https://pokeapi.co/api/v2/move/38/" },
      { "name": "tail-whip", "url": "https://pokeapi.co/api/v2/move/39/" },
      { "name": "poison-sting", "url": "https://pokeapi.co/api/v2/move/40/" },
      { "name": "twineedle", "url": "https://pokeapi.co/api/v2/move/41/" },
      { "name": "pin-missile", "url": "https://pokeapi.co/api/v2/move/42/" },
      { "name": "leer", "url": "https://pokeapi.co/api/v2/move/43/" },
      { "name": "bite", "url": "https://pokeapi.co/api/v2/move/44/" },
      { "name": "growl", "url": "https://pokeapi.co/api/v2/move/45/" },
      { "name": "roar", "url": "https://pokeapi.co/api/v2/move/46/" },
      { "name": "sing", "url": "https://pokeapi.co/api/v2/move/47/" },
      { "name": "supersonic", "url": "https://pokeapi.co/api/v2/move/48/" },
      { "name": "sonic-boom", "url": "https://pokeapi.co/api/v2/move/49/" },
      { "name": "disable", "url": "https://pokeapi.co/api/v2/move/50/" },
      { "name": "acid", "url": "https://pokeapi.co/api/v2/move/51/" },
      { "name": "ember", "url": "https://pokeapi.co/api/v2/move/52/" },
      { "name": "flamethrower", "url": "https://pokeapi.co/api/v2/move/53/" },
      { "name": "mist", "url": "https://pokeapi.co/api/v2/move/54/" },
      { "name": "water-gun", "url": "https://pokeapi.co/api/v2/move/55/" },
      { "name": "hydro-pump", "url": "https://pokeapi.co/api/v2/move/56/" },
      { "name": "surf", "url": "https://pokeapi.co/api/v2/move/57/" },
      { "name": "ice-beam", "url": "https://pokeapi.co/api/v2/move/58/" },
      { "name": "blizzard", "url": "https://pokeapi.co/api/v2/move/59/" },
      { "name": "psybeam", "url": "https://pokeapi.co/api/v2/move/60/" },
      { "name": "bubble-beam", "url": "https://pokeapi.co/api/v2/move/61/" },
      { "name": "aurora-beam", "url": "https://pokeapi.co/api/v2/move/62/" },
      { "name": "hyper-beam", "url": "https://pokeapi.co/api/v2/move/63/" },
      { "name": "peck", "url": "https://pokeapi.co/api/v2/move/64/" },
      { "name": "drill-peck", "url": "https://pokeapi.co/api/v2/move/65/" },
      { "name": "submission", "url": "https://pokeapi.co/api/v2/move/66/" },
      { "name": "low-kick", "url": "https://pokeapi.co/api/v2/move/67/" },
      { "name": "counter", "url": "https://pokeapi.co/api/v2/move/68/" },
      { "name": "seismic-toss", "url": "https://pokeapi.co/api/v2/move/69/" },
      { "name": "strength", "url": "https://pokeapi.co/api/v2/move/70/" }
    ]
  }
}
